60 	 0.11675 	 0.029942 	 1.1514 	 0.035629 	 1.8332 	 0.13584 	 1.5736 	 0.16766
70 	 0.084669 	 0.028613 	 1.1897 	 0.034735 	 1.5167 	 0.066603 	 1.2679 	 0.085978
80 	 0.093781 	 0.025217 	 1.3686 	 0.025384 	 1.7007 	 0.071133 	 1.5394 	 0.084404
90 	 -0.0514801 	 0.12030 	 1.4357 	 0.17433 	 1.6087 	 0.36221 	 1.3321 	 0.36701
100 	 0.098239 	 0.073152 	 1.5485 	 0.064488 	 2.0842 	 0.25811 	 1.2781 	 0.13867
110 	 0.083144 	 0.055845 	 1.5921 	 0.060236 	 1.7461 	 0.15153 	 1.4353 	 0.13891
120 	 -0.0245662 	 0.050787 	 1.4387 	 0.065552 	 1.2868 	 0.086367 	 1.0690 	 0.077277
160 	 0.044645 	 0.048928 	 2.0465 	 0.058502 	 1.6485 	 0.088415 	 1.7213 	 0.19409
200 	 0.080982 	 0.050348 	 2.2650 	 0.063272 	 1.5339 	 0.074018 	 1.4615 	 0.10485
