
[hgg]
mgg =  80.000 L(90 - 110) B(40) 
mX =  100.00 C L(-INF - +INF) 
dmX =  0.098239 +/- 0.073152 L(-15 - 15) 
cbSigma =  1.5485 +/- 0.064488 L(0 - 60) // [GeV]
cbAlphaLo =  2.0842 +/- 0.25811 L(0.5 - 6) 
cbNLo =  6.2156 C L(1 - 50) 
cbAlphaHi =  1.2781 +/- 0.13867 L(0.5 - 10) 
cbNHi =  29197 C L(1 - 100000) 
xi = -0.0200000 C L(-INF - +INF) 
nSignal =  1227.1 +/- 44.984 L(0 - 1e+07) 
nBackground =  0.0000 C L(0 - 1e+07) 
