60 	 0.24142 	 0.051017 	 1.2235 	 0.058046 	 1.6281 	 0.20834 	 1.7418 	 0.24519
70 	 0.078022 	 0.050579 	 1.2968 	 0.068491 	 1.3747 	 0.11589 	 1.2830 	 0.14229
80 	 0.12958 	 0.040463 	 1.4765 	 0.038647 	 1.6334 	 0.092105 	 1.6164 	 0.12959
90 	 0.097695 	 0.045235 	 1.4819 	 0.065421 	 1.4271 	 0.10048 	 1.3945 	 0.14381
100 	 0.16616 	 0.042466 	 1.7065 	 0.039718 	 1.6157 	 0.080800 	 1.6732 	 0.13391
110 	 0.049994 	 0.044786 	 1.6674 	 0.061134 	 1.4935 	 0.096462 	 1.4444 	 0.12748
120 	 0.10273 	 0.044087 	 1.8435 	 0.044404 	 1.4681 	 0.077705 	 1.7514 	 0.11871
140 	 0.11844 	 0.045920 	 2.0908 	 0.044872 	 1.6420 	 0.087613 	 1.8676 	 0.14718
160 	 0.044905 	 0.049610 	 2.1321 	 0.059413 	 1.4750 	 0.077025 	 1.4759 	 0.095988
180 	 0.10328 	 0.052366 	 2.2426 	 0.074195 	 1.4698 	 0.092107 	 1.4040 	 0.088702
200 	 0.15422 	 0.053586 	 2.3791 	 0.066485 	 1.4499 	 0.071581 	 1.4589 	 0.093930
