40 	 -0.0195472 	 0.077687 	 0.62140 	 0.14919 	 2.0702 	 3.0015 	 1.3454 	 0.32498
50 	 0.11625 	 0.20905 	 0.75969 	 0.39541 	 1.6605 	 2.3875 	 1.2135 	 1.1247
60 	 0.020357 	 0.036606 	 1.0418 	 0.041090 	 1.9761 	 0.27108 	 1.4656 	 0.16238
70 	 0.13983 	 0.031830 	 1.2374 	 0.026131 	 2.0239 	 0.20928 	 5.9938 	 306.13
80 	 0.078980 	 0.034384 	 1.2542 	 0.038167 	 1.9269 	 0.14806 	 1.8183 	 0.29153
90 	 0.032444 	 0.031556 	 1.2530 	 0.033706 	 1.6699 	 0.087862 	 1.4810 	 0.11723
100 	 0.041667 	 0.034160 	 1.3710 	 0.037891 	 1.5727 	 0.083098 	 1.3850 	 0.098344
110 	 0.047943 	 0.034144 	 1.4785 	 0.035791 	 1.6359 	 0.080339 	 1.4757 	 0.10467
120 	 0.019069 	 0.034073 	 1.5148 	 0.045684 	 1.6203 	 0.10873 	 1.5400 	 0.12919
140 	 0.0013754 	 0.037268 	 1.6636 	 0.044264 	 1.5980 	 0.088452 	 1.3565 	 0.083096
160 	 0.11407 	 0.037583 	 1.9250 	 0.047934 	 1.8357 	 0.11423 	 2.2181 	 0.58203
180 	 0.074617 	 0.037561 	 2.0346 	 0.035769 	 1.7788 	 0.088974 	 1.8532 	 0.13450
200 	 0.023602 	 0.040625 	 2.0476 	 0.049589 	 1.5889 	 0.077376 	 1.4370 	 0.087991
