
[1mRooFit v3.60 -- Developed by Wouter Verkerke and David Kirkby[0m 
                Copyright (C) 2000-2013 NIKHEF, University of California & Stanford University
                All rights reserved, please read http://roofit.sourceforge.net/license.txt

INFO : Hfitter libraries successfully loaded.
INFO : TreeReader library successfully loaded.
INFO : HGGfitter library successfully loaded.

Processing ../Tools/SignalParametrizationRun2/fit_multiMassMC.C(165504,"inclusive")...

Applying ATLAS style settings...

----------------STARTING THE MERGE FIT FOR MG
-----------------starting this sample: MG
RooSimultaneous::hgg[ indexCat=mHCat m60=hgg.model0_m60 m70=hgg.model0_m70 m80=hgg.model0_m80 m90=hgg.model0_m90 m100=hgg.model0_m100 m110=hgg.model0_m110 m120=hgg.model0_m120 m140=hgg.model0_m140 m160=hgg.model0_m160 m180=hgg.model0_m180 m200=hgg.model0_m200 ] = 0.0908868
  RooAddPdf::hgg.model0_m60[ nSignal_m60 * Signal_m60 + nBackground_m60 * Background_m60 ] = 0.999975
    HggTwoSidedCBPdf::Signal_m60[ m=mgg_m60 m0=cbPeak_m60 sigma=cbSigma_m60 alphaLo=cbAlphaLo_m60 nLo=cbNLo alphaHi=cbAlphaHi_m60 nHi=cbNHi ] = 0.999975
      RooFormulaVar::cbPeak_m60[ actualVars=(mCBpar0,mCBpar1,delta_m60,mX_m60) formula="@0+@1*@2+@3" ] = 60.01
        RooFormulaVar::delta_m60[ actualVars=(mX_m60) formula="(@0-(100))/100" ] = -0.4
          RooRealVar::mX_m60 = 60 C  L(-INF - +INF) 
        RooRealVar::mX_m60 = 60 C  L(-INF - +INF) 
        RooRealVar::mCBpar0 = -0.01  L(-1 - 1) 
        RooRealVar::mCBpar1 = -0.05  L(-1 - 1) 
      RooFormulaVar::cbSigma_m60[ actualVars=(sCBpar0,sCBpar1,delta_m60) formula="@0+@1*@2" ] = 1.408
        RooFormulaVar::delta_m60[ actualVars=(mX_m60) formula="(@0-(100))/100" ] = -0.4
          RooRealVar::mX_m60 = 60 C  L(-INF - +INF) 
        RooRealVar::sCBpar0 = 1.78  L(0 - 3) 
        RooRealVar::sCBpar1 = 0.93  L(0 - 2) 
      RooFormulaVar::cbAlphaLo_m60[ actualVars=(aLopar0,aLopar1,delta_m60) formula="@0+@1*@2" ] = 1.492
        RooFormulaVar::delta_m60[ actualVars=(mX_m60) formula="(@0-(100))/100" ] = -0.4
          RooRealVar::mX_m60 = 60 C  L(-INF - +INF) 
        RooRealVar::aLopar0 = 1.5  L(-1 - 10) 
        RooRealVar::aLopar1 = 0.02  L(-1 - 50) 
      RooFormulaVar::cbAlphaHi_m60[ actualVars=(aHipar0,aHipar1,delta_m60) formula="@0+@1*@2" ] = 1.8268
        RooFormulaVar::delta_m60[ actualVars=(mX_m60) formula="(@0-(100))/100" ] = -0.4
          RooRealVar::mX_m60 = 60 C  L(-INF - +INF) 
        RooRealVar::aHipar0 = 1.83  L(-1 - 10) 
        RooRealVar::aHipar1 = 0.008  L(-1 - 10) 
      RooRealVar::mgg_m60 = 60 C  L(54 - 66) B(2650) // [GeV]
      RooFormulaVar::cbNLo[ actualVars=(nLopar0) formula="@0" ] = 8.1327
        RooRealVar::nLopar0 = 8.1327  L(1 - 50) 
      RooFormulaVar::cbNHi[ actualVars=(nHipar0) formula="@0" ] = 15.746
        RooRealVar::nHipar0 = 15.746  L(1 - 100000) 
    RooExponential::Background_m60[ x=mgg_m60 c=xi ] = 0.301194
      RooRealVar::mgg_m60 = 60 C  L(54 - 66) B(2650) // [GeV]
      RooRealVar::xi = -0.02 C  L(-INF - +INF) // [1/GeV]
    RooRealVar::nSignal_m60 = 10000  L(0 - 1e+08) 
    RooRealVar::nBackground_m60 = 0 C  L(0 - 1e+08) 
  RooAddPdf::hgg.model0_m70[ nSignal_m70 * Signal_m70 + nBackground_m70 * Background_m70 ] = 0.999994
    HggTwoSidedCBPdf::Signal_m70[ m=mgg_m70 m0=cbPeak_m70 sigma=cbSigma_m70 alphaLo=cbAlphaLo_m70 nLo=cbNLo alphaHi=cbAlphaHi_m70 nHi=cbNHi ] = 0.999994
      RooFormulaVar::cbPeak_m70[ actualVars=(mCBpar0,mCBpar1,delta_m70,mX_m70) formula="@0+@1*@2+@3" ] = 70.005
        RooFormulaVar::delta_m70[ actualVars=(mX_m70) formula="(@0-(100))/100" ] = -0.3
          RooRealVar::mX_m70 = 70 C  L(-INF - +INF) 
        RooRealVar::mX_m70 = 70 C  L(-INF - +INF) 
        RooRealVar::mCBpar0 = -0.01  L(-1 - 1) 
        RooRealVar::mCBpar1 = -0.05  L(-1 - 1) 
      RooFormulaVar::cbSigma_m70[ actualVars=(sCBpar0,sCBpar1,delta_m70) formula="@0+@1*@2" ] = 1.501
        RooFormulaVar::delta_m70[ actualVars=(mX_m70) formula="(@0-(100))/100" ] = -0.3
          RooRealVar::mX_m70 = 70 C  L(-INF - +INF) 
        RooRealVar::sCBpar0 = 1.78  L(0 - 3) 
        RooRealVar::sCBpar1 = 0.93  L(0 - 2) 
      RooFormulaVar::cbAlphaLo_m70[ actualVars=(aLopar0,aLopar1,delta_m70) formula="@0+@1*@2" ] = 1.494
        RooFormulaVar::delta_m70[ actualVars=(mX_m70) formula="(@0-(100))/100" ] = -0.3
          RooRealVar::mX_m70 = 70 C  L(-INF - +INF) 
        RooRealVar::aLopar0 = 1.5  L(-1 - 10) 
        RooRealVar::aLopar1 = 0.02  L(-1 - 50) 
      RooFormulaVar::cbAlphaHi_m70[ actualVars=(aHipar0,aHipar1,delta_m70) formula="@0+@1*@2" ] = 1.8276
        RooFormulaVar::delta_m70[ actualVars=(mX_m70) formula="(@0-(100))/100" ] = -0.3
          RooRealVar::mX_m70 = 70 C  L(-INF - +INF) 
        RooRealVar::aHipar0 = 1.83  L(-1 - 10) 
        RooRealVar::aHipar1 = 0.008  L(-1 - 10) 
      RooRealVar::mgg_m70 = 70 C  L(63 - 77) B(2650) // [GeV]
      RooFormulaVar::cbNLo[ actualVars=(nLopar0) formula="@0" ] = 8.1327
        RooRealVar::nLopar0 = 8.1327  L(1 - 50) 
      RooFormulaVar::cbNHi[ actualVars=(nHipar0) formula="@0" ] = 15.746
        RooRealVar::nHipar0 = 15.746  L(1 - 100000) 
    RooExponential::Background_m70[ x=mgg_m70 c=xi ] = 0.246597
      RooRealVar::mgg_m70 = 70 C  L(63 - 77) B(2650) // [GeV]
      RooRealVar::xi = -0.02 C  L(-INF - +INF) // [1/GeV]
    RooRealVar::nSignal_m70 = 10000  L(0 - 1e+08) 
    RooRealVar::nBackground_m70 = 0 C  L(0 - 1e+08) 
  RooAddPdf::hgg.model0_m80[ nSignal_m80 * Signal_m80 + nBackground_m80 * Background_m80 ] = 1
    HggTwoSidedCBPdf::Signal_m80[ m=mgg_m80 m0=cbPeak_m80 sigma=cbSigma_m80 alphaLo=cbAlphaLo_m80 nLo=cbNLo alphaHi=cbAlphaHi_m80 nHi=cbNHi ] = 1
      RooFormulaVar::cbPeak_m80[ actualVars=(mCBpar0,mCBpar1,delta_m80,mX_m80) formula="@0+@1*@2+@3" ] = 80
        RooFormulaVar::delta_m80[ actualVars=(mX_m80) formula="(@0-(100))/100" ] = -0.2
          RooRealVar::mX_m80 = 80 C  L(-INF - +INF) 
        RooRealVar::mX_m80 = 80 C  L(-INF - +INF) 
        RooRealVar::mCBpar0 = -0.01  L(-1 - 1) 
        RooRealVar::mCBpar1 = -0.05  L(-1 - 1) 
      RooFormulaVar::cbSigma_m80[ actualVars=(sCBpar0,sCBpar1,delta_m80) formula="@0+@1*@2" ] = 1.594
        RooFormulaVar::delta_m80[ actualVars=(mX_m80) formula="(@0-(100))/100" ] = -0.2
          RooRealVar::mX_m80 = 80 C  L(-INF - +INF) 
        RooRealVar::sCBpar0 = 1.78  L(0 - 3) 
        RooRealVar::sCBpar1 = 0.93  L(0 - 2) 
      RooFormulaVar::cbAlphaLo_m80[ actualVars=(aLopar0,aLopar1,delta_m80) formula="@0+@1*@2" ] = 1.496
        RooFormulaVar::delta_m80[ actualVars=(mX_m80) formula="(@0-(100))/100" ] = -0.2
          RooRealVar::mX_m80 = 80 C  L(-INF - +INF) 
        RooRealVar::aLopar0 = 1.5  L(-1 - 10) 
        RooRealVar::aLopar1 = 0.02  L(-1 - 50) 
      RooFormulaVar::cbAlphaHi_m80[ actualVars=(aHipar0,aHipar1,delta_m80) formula="@0+@1*@2" ] = 1.8284
        RooFormulaVar::delta_m80[ actualVars=(mX_m80) formula="(@0-(100))/100" ] = -0.2
          RooRealVar::mX_m80 = 80 C  L(-INF - +INF) 
        RooRealVar::aHipar0 = 1.83  L(-1 - 10) 
        RooRealVar::aHipar1 = 0.008  L(-1 - 10) 
      RooRealVar::mgg_m80 = 80 C  L(72 - 88) B(2650) // [GeV]
      RooFormulaVar::cbNLo[ actualVars=(nLopar0) formula="@0" ] = 8.1327
        RooRealVar::nLopar0 = 8.1327  L(1 - 50) 
      RooFormulaVar::cbNHi[ actualVars=(nHipar0) formula="@0" ] = 15.746
        RooRealVar::nHipar0 = 15.746  L(1 - 100000) 
    RooExponential::Background_m80[ x=mgg_m80 c=xi ] = 0.201897
      RooRealVar::mgg_m80 = 80 C  L(72 - 88) B(2650) // [GeV]
      RooRealVar::xi = -0.02 C  L(-INF - +INF) // [1/GeV]
    RooRealVar::nSignal_m80 = 10000  L(0 - 1e+08) 
    RooRealVar::nBackground_m80 = 0 C  L(0 - 1e+08) 
  RooAddPdf::hgg.model0_m90[ nSignal_m90 * Signal_m90 + nBackground_m90 * Background_m90 ] = 0.999996
    HggTwoSidedCBPdf::Signal_m90[ m=mgg_m90 m0=cbPeak_m90 sigma=cbSigma_m90 alphaLo=cbAlphaLo_m90 nLo=cbNLo alphaHi=cbAlphaHi_m90 nHi=cbNHi ] = 0.999996
      RooFormulaVar::cbPeak_m90[ actualVars=(mCBpar0,mCBpar1,delta_m90,mX_m90) formula="@0+@1*@2+@3" ] = 89.995
        RooFormulaVar::delta_m90[ actualVars=(mX_m90) formula="(@0-(100))/100" ] = -0.1
          RooRealVar::mX_m90 = 90 C  L(-INF - +INF) 
        RooRealVar::mX_m90 = 90 C  L(-INF - +INF) 
        RooRealVar::mCBpar0 = -0.01  L(-1 - 1) 
        RooRealVar::mCBpar1 = -0.05  L(-1 - 1) 
      RooFormulaVar::cbSigma_m90[ actualVars=(sCBpar0,sCBpar1,delta_m90) formula="@0+@1*@2" ] = 1.687
        RooFormulaVar::delta_m90[ actualVars=(mX_m90) formula="(@0-(100))/100" ] = -0.1
          RooRealVar::mX_m90 = 90 C  L(-INF - +INF) 
        RooRealVar::sCBpar0 = 1.78  L(0 - 3) 
        RooRealVar::sCBpar1 = 0.93  L(0 - 2) 
      RooFormulaVar::cbAlphaLo_m90[ actualVars=(aLopar0,aLopar1,delta_m90) formula="@0+@1*@2" ] = 1.498
        RooFormulaVar::delta_m90[ actualVars=(mX_m90) formula="(@0-(100))/100" ] = -0.1
          RooRealVar::mX_m90 = 90 C  L(-INF - +INF) 
        RooRealVar::aLopar0 = 1.5  L(-1 - 10) 
        RooRealVar::aLopar1 = 0.02  L(-1 - 50) 
      RooFormulaVar::cbAlphaHi_m90[ actualVars=(aHipar0,aHipar1,delta_m90) formula="@0+@1*@2" ] = 1.8292
        RooFormulaVar::delta_m90[ actualVars=(mX_m90) formula="(@0-(100))/100" ] = -0.1
          RooRealVar::mX_m90 = 90 C  L(-INF - +INF) 
        RooRealVar::aHipar0 = 1.83  L(-1 - 10) 
        RooRealVar::aHipar1 = 0.008  L(-1 - 10) 
      RooRealVar::mgg_m90 = 90 C  L(81 - 99) B(2650) // [GeV]
      RooFormulaVar::cbNLo[ actualVars=(nLopar0) formula="@0" ] = 8.1327
        RooRealVar::nLopar0 = 8.1327  L(1 - 50) 
      RooFormulaVar::cbNHi[ actualVars=(nHipar0) formula="@0" ] = 15.746
        RooRealVar::nHipar0 = 15.746  L(1 - 100000) 
    RooExponential::Background_m90[ x=mgg_m90 c=xi ] = 0.165299
      RooRealVar::mgg_m90 = 90 C  L(81 - 99) B(2650) // [GeV]
      RooRealVar::xi = -0.02 C  L(-INF - +INF) // [1/GeV]
    RooRealVar::nSignal_m90 = 10000  L(0 - 1e+08) 
    RooRealVar::nBackground_m90 = 0 C  L(0 - 1e+08) 
  RooAddPdf::hgg.model0_m100[ nSignal_m100 * Signal_m100 + nBackground_m100 * Background_m100 ] = 0.999984
    HggTwoSidedCBPdf::Signal_m100[ m=mgg_m100 m0=cbPeak_m100 sigma=cbSigma_m100 alphaLo=cbAlphaLo_m100 nLo=cbNLo alphaHi=cbAlphaHi_m100 nHi=cbNHi ] = 0.999984
      RooFormulaVar::cbPeak_m100[ actualVars=(mCBpar0,mCBpar1,delta_m100,mX_m100) formula="@0+@1*@2+@3" ] = 99.99
        RooFormulaVar::delta_m100[ actualVars=(mX_m100) formula="(@0-(100))/100" ] = 0
          RooRealVar::mX_m100 = 100 C  L(-INF - +INF) 
        RooRealVar::mX_m100 = 100 C  L(-INF - +INF) 
        RooRealVar::mCBpar0 = -0.01  L(-1 - 1) 
        RooRealVar::mCBpar1 = -0.05  L(-1 - 1) 
      RooFormulaVar::cbSigma_m100[ actualVars=(sCBpar0,sCBpar1,delta_m100) formula="@0+@1*@2" ] = 1.78
        RooFormulaVar::delta_m100[ actualVars=(mX_m100) formula="(@0-(100))/100" ] = 0
          RooRealVar::mX_m100 = 100 C  L(-INF - +INF) 
        RooRealVar::sCBpar0 = 1.78  L(0 - 3) 
        RooRealVar::sCBpar1 = 0.93  L(0 - 2) 
      RooFormulaVar::cbAlphaLo_m100[ actualVars=(aLopar0,aLopar1,delta_m100) formula="@0+@1*@2" ] = 1.5
        RooFormulaVar::delta_m100[ actualVars=(mX_m100) formula="(@0-(100))/100" ] = 0
          RooRealVar::mX_m100 = 100 C  L(-INF - +INF) 
        RooRealVar::aLopar0 = 1.5  L(-1 - 10) 
        RooRealVar::aLopar1 = 0.02  L(-1 - 50) 
      RooFormulaVar::cbAlphaHi_m100[ actualVars=(aHipar0,aHipar1,delta_m100) formula="@0+@1*@2" ] = 1.83
        RooFormulaVar::delta_m100[ actualVars=(mX_m100) formula="(@0-(100))/100" ] = 0
          RooRealVar::mX_m100 = 100 C  L(-INF - +INF) 
        RooRealVar::aHipar0 = 1.83  L(-1 - 10) 
        RooRealVar::aHipar1 = 0.008  L(-1 - 10) 
      RooRealVar::mgg_m100 = 100 C  L(90 - 110) B(2650) // [GeV]
      RooFormulaVar::cbNLo[ actualVars=(nLopar0) formula="@0" ] = 8.1327
        RooRealVar::nLopar0 = 8.1327  L(1 - 50) 
      RooFormulaVar::cbNHi[ actualVars=(nHipar0) formula="@0" ] = 15.746
        RooRealVar::nHipar0 = 15.746  L(1 - 100000) 
    RooExponential::Background_m100[ x=mgg_m100 c=xi ] = 0.135335
      RooRealVar::mgg_m100 = 100 C  L(90 - 110) B(2650) // [GeV]
      RooRealVar::xi = -0.02 C  L(-INF - +INF) // [1/GeV]
    RooRealVar::nSignal_m100 = 10000  L(0 - 1e+08) 
    RooRealVar::nBackground_m100 = 0 C  L(0 - 1e+08) 
  RooAddPdf::hgg.model0_m110[ nSignal_m110 * Signal_m110 + nBackground_m110 * Background_m110 ] = 0.999968
    HggTwoSidedCBPdf::Signal_m110[ m=mgg_m110 m0=cbPeak_m110 sigma=cbSigma_m110 alphaLo=cbAlphaLo_m110 nLo=cbNLo alphaHi=cbAlphaHi_m110 nHi=cbNHi ] = 0.999968
      RooFormulaVar::cbPeak_m110[ actualVars=(mCBpar0,mCBpar1,delta_m110,mX_m110) formula="@0+@1*@2+@3" ] = 109.985
        RooFormulaVar::delta_m110[ actualVars=(mX_m110) formula="(@0-(100))/100" ] = 0.1
          RooRealVar::mX_m110 = 110 C  L(-INF - +INF) 
        RooRealVar::mX_m110 = 110 C  L(-INF - +INF) 
        RooRealVar::mCBpar0 = -0.01  L(-1 - 1) 
        RooRealVar::mCBpar1 = -0.05  L(-1 - 1) 
      RooFormulaVar::cbSigma_m110[ actualVars=(sCBpar0,sCBpar1,delta_m110) formula="@0+@1*@2" ] = 1.873
        RooFormulaVar::delta_m110[ actualVars=(mX_m110) formula="(@0-(100))/100" ] = 0.1
          RooRealVar::mX_m110 = 110 C  L(-INF - +INF) 
        RooRealVar::sCBpar0 = 1.78  L(0 - 3) 
        RooRealVar::sCBpar1 = 0.93  L(0 - 2) 
      RooFormulaVar::cbAlphaLo_m110[ actualVars=(aLopar0,aLopar1,delta_m110) formula="@0+@1*@2" ] = 1.502
        RooFormulaVar::delta_m110[ actualVars=(mX_m110) formula="(@0-(100))/100" ] = 0.1
          RooRealVar::mX_m110 = 110 C  L(-INF - +INF) 
        RooRealVar::aLopar0 = 1.5  L(-1 - 10) 
        RooRealVar::aLopar1 = 0.02  L(-1 - 50) 
      RooFormulaVar::cbAlphaHi_m110[ actualVars=(aHipar0,aHipar1,delta_m110) formula="@0+@1*@2" ] = 1.8308
        RooFormulaVar::delta_m110[ actualVars=(mX_m110) formula="(@0-(100))/100" ] = 0.1
          RooRealVar::mX_m110 = 110 C  L(-INF - +INF) 
        RooRealVar::aHipar0 = 1.83  L(-1 - 10) 
        RooRealVar::aHipar1 = 0.008  L(-1 - 10) 
      RooRealVar::mgg_m110 = 110 C  L(99 - 121) B(2650) // [GeV]
      RooFormulaVar::cbNLo[ actualVars=(nLopar0) formula="@0" ] = 8.1327
        RooRealVar::nLopar0 = 8.1327  L(1 - 50) 
      RooFormulaVar::cbNHi[ actualVars=(nHipar0) formula="@0" ] = 15.746
        RooRealVar::nHipar0 = 15.746  L(1 - 100000) 
    RooExponential::Background_m110[ x=mgg_m110 c=xi ] = 0.110803
      RooRealVar::mgg_m110 = 110 C  L(99 - 121) B(2650) // [GeV]
      RooRealVar::xi = -0.02 C  L(-INF - +INF) // [1/GeV]
    RooRealVar::nSignal_m110 = 10000  L(0 - 1e+08) 
    RooRealVar::nBackground_m110 = 0 C  L(0 - 1e+08) 
  RooAddPdf::hgg.model0_m120[ nSignal_m120 * Signal_m120 + nBackground_m120 * Background_m120 ] = 0.999948
    HggTwoSidedCBPdf::Signal_m120[ m=mgg_m120 m0=cbPeak_m120 sigma=cbSigma_m120 alphaLo=cbAlphaLo_m120 nLo=cbNLo alphaHi=cbAlphaHi_m120 nHi=cbNHi ] = 0.999948
      RooFormulaVar::cbPeak_m120[ actualVars=(mCBpar0,mCBpar1,delta_m120,mX_m120) formula="@0+@1*@2+@3" ] = 119.98
        RooFormulaVar::delta_m120[ actualVars=(mX_m120) formula="(@0-(100))/100" ] = 0.2
          RooRealVar::mX_m120 = 120 C  L(-INF - +INF) 
        RooRealVar::mX_m120 = 120 C  L(-INF - +INF) 
        RooRealVar::mCBpar0 = -0.01  L(-1 - 1) 
        RooRealVar::mCBpar1 = -0.05  L(-1 - 1) 
      RooFormulaVar::cbSigma_m120[ actualVars=(sCBpar0,sCBpar1,delta_m120) formula="@0+@1*@2" ] = 1.966
        RooFormulaVar::delta_m120[ actualVars=(mX_m120) formula="(@0-(100))/100" ] = 0.2
          RooRealVar::mX_m120 = 120 C  L(-INF - +INF) 
        RooRealVar::sCBpar0 = 1.78  L(0 - 3) 
        RooRealVar::sCBpar1 = 0.93  L(0 - 2) 
      RooFormulaVar::cbAlphaLo_m120[ actualVars=(aLopar0,aLopar1,delta_m120) formula="@0+@1*@2" ] = 1.504
        RooFormulaVar::delta_m120[ actualVars=(mX_m120) formula="(@0-(100))/100" ] = 0.2
          RooRealVar::mX_m120 = 120 C  L(-INF - +INF) 
        RooRealVar::aLopar0 = 1.5  L(-1 - 10) 
        RooRealVar::aLopar1 = 0.02  L(-1 - 50) 
      RooFormulaVar::cbAlphaHi_m120[ actualVars=(aHipar0,aHipar1,delta_m120) formula="@0+@1*@2" ] = 1.8316
        RooFormulaVar::delta_m120[ actualVars=(mX_m120) formula="(@0-(100))/100" ] = 0.2
          RooRealVar::mX_m120 = 120 C  L(-INF - +INF) 
        RooRealVar::aHipar0 = 1.83  L(-1 - 10) 
        RooRealVar::aHipar1 = 0.008  L(-1 - 10) 
      RooRealVar::mgg_m120 = 120 C  L(108 - 132) B(2650) // [GeV]
      RooFormulaVar::cbNLo[ actualVars=(nLopar0) formula="@0" ] = 8.1327
        RooRealVar::nLopar0 = 8.1327  L(1 - 50) 
      RooFormulaVar::cbNHi[ actualVars=(nHipar0) formula="@0" ] = 15.746
        RooRealVar::nHipar0 = 15.746  L(1 - 100000) 
    RooExponential::Background_m120[ x=mgg_m120 c=xi ] = 0.090718
      RooRealVar::mgg_m120 = 120 C  L(108 - 132) B(2650) // [GeV]
      RooRealVar::xi = -0.02 C  L(-INF - +INF) // [1/GeV]
    RooRealVar::nSignal_m120 = 10000  L(0 - 1e+08) 
    RooRealVar::nBackground_m120 = 0 C  L(0 - 1e+08) 
  RooAddPdf::hgg.model0_m140[ nSignal_m140 * Signal_m140 + nBackground_m140 * Background_m140 ] = 0.999903
    HggTwoSidedCBPdf::Signal_m140[ m=mgg_m140 m0=cbPeak_m140 sigma=cbSigma_m140 alphaLo=cbAlphaLo_m140 nLo=cbNLo alphaHi=cbAlphaHi_m140 nHi=cbNHi ] = 0.999903
      RooFormulaVar::cbPeak_m140[ actualVars=(mCBpar0,mCBpar1,delta_m140,mX_m140) formula="@0+@1*@2+@3" ] = 139.97
        RooFormulaVar::delta_m140[ actualVars=(mX_m140) formula="(@0-(100))/100" ] = 0.4
          RooRealVar::mX_m140 = 140 C  L(-INF - +INF) 
        RooRealVar::mX_m140 = 140 C  L(-INF - +INF) 
        RooRealVar::mCBpar0 = -0.01  L(-1 - 1) 
        RooRealVar::mCBpar1 = -0.05  L(-1 - 1) 
      RooFormulaVar::cbSigma_m140[ actualVars=(sCBpar0,sCBpar1,delta_m140) formula="@0+@1*@2" ] = 2.152
        RooFormulaVar::delta_m140[ actualVars=(mX_m140) formula="(@0-(100))/100" ] = 0.4
          RooRealVar::mX_m140 = 140 C  L(-INF - +INF) 
        RooRealVar::sCBpar0 = 1.78  L(0 - 3) 
        RooRealVar::sCBpar1 = 0.93  L(0 - 2) 
      RooFormulaVar::cbAlphaLo_m140[ actualVars=(aLopar0,aLopar1,delta_m140) formula="@0+@1*@2" ] = 1.508
        RooFormulaVar::delta_m140[ actualVars=(mX_m140) formula="(@0-(100))/100" ] = 0.4
          RooRealVar::mX_m140 = 140 C  L(-INF - +INF) 
        RooRealVar::aLopar0 = 1.5  L(-1 - 10) 
        RooRealVar::aLopar1 = 0.02  L(-1 - 50) 
      RooFormulaVar::cbAlphaHi_m140[ actualVars=(aHipar0,aHipar1,delta_m140) formula="@0+@1*@2" ] = 1.8332
        RooFormulaVar::delta_m140[ actualVars=(mX_m140) formula="(@0-(100))/100" ] = 0.4
          RooRealVar::mX_m140 = 140 C  L(-INF - +INF) 
        RooRealVar::aHipar0 = 1.83  L(-1 - 10) 
        RooRealVar::aHipar1 = 0.008  L(-1 - 10) 
      RooRealVar::mgg_m140 = 140 C  L(126 - 154) B(2650) // [GeV]
      RooFormulaVar::cbNLo[ actualVars=(nLopar0) formula="@0" ] = 8.1327
        RooRealVar::nLopar0 = 8.1327  L(1 - 50) 
      RooFormulaVar::cbNHi[ actualVars=(nHipar0) formula="@0" ] = 15.746
        RooRealVar::nHipar0 = 15.746  L(1 - 100000) 
    RooExponential::Background_m140[ x=mgg_m140 c=xi ] = 0.0608101
      RooRealVar::mgg_m140 = 140 C  L(126 - 154) B(2650) // [GeV]
      RooRealVar::xi = -0.02 C  L(-INF - +INF) // [1/GeV]
    RooRealVar::nSignal_m140 = 10000  L(0 - 1e+08) 
    RooRealVar::nBackground_m140 = 0 C  L(0 - 1e+08) 
  RooAddPdf::hgg.model0_m160[ nSignal_m160 * Signal_m160 + nBackground_m160 * Background_m160 ] = 0.999854
    HggTwoSidedCBPdf::Signal_m160[ m=mgg_m160 m0=cbPeak_m160 sigma=cbSigma_m160 alphaLo=cbAlphaLo_m160 nLo=cbNLo alphaHi=cbAlphaHi_m160 nHi=cbNHi ] = 0.999854
      RooFormulaVar::cbPeak_m160[ actualVars=(mCBpar0,mCBpar1,delta_m160,mX_m160) formula="@0+@1*@2+@3" ] = 159.96
        RooFormulaVar::delta_m160[ actualVars=(mX_m160) formula="(@0-(100))/100" ] = 0.6
          RooRealVar::mX_m160 = 160 C  L(-INF - +INF) 
        RooRealVar::mX_m160 = 160 C  L(-INF - +INF) 
        RooRealVar::mCBpar0 = -0.01  L(-1 - 1) 
        RooRealVar::mCBpar1 = -0.05  L(-1 - 1) 
      RooFormulaVar::cbSigma_m160[ actualVars=(sCBpar0,sCBpar1,delta_m160) formula="@0+@1*@2" ] = 2.338
        RooFormulaVar::delta_m160[ actualVars=(mX_m160) formula="(@0-(100))/100" ] = 0.6
          RooRealVar::mX_m160 = 160 C  L(-INF - +INF) 
        RooRealVar::sCBpar0 = 1.78  L(0 - 3) 
        RooRealVar::sCBpar1 = 0.93  L(0 - 2) 
      RooFormulaVar::cbAlphaLo_m160[ actualVars=(aLopar0,aLopar1,delta_m160) formula="@0+@1*@2" ] = 1.512
        RooFormulaVar::delta_m160[ actualVars=(mX_m160) formula="(@0-(100))/100" ] = 0.6
          RooRealVar::mX_m160 = 160 C  L(-INF - +INF) 
        RooRealVar::aLopar0 = 1.5  L(-1 - 10) 
        RooRealVar::aLopar1 = 0.02  L(-1 - 50) 
      RooFormulaVar::cbAlphaHi_m160[ actualVars=(aHipar0,aHipar1,delta_m160) formula="@0+@1*@2" ] = 1.8348
        RooFormulaVar::delta_m160[ actualVars=(mX_m160) formula="(@0-(100))/100" ] = 0.6
          RooRealVar::mX_m160 = 160 C  L(-INF - +INF) 
        RooRealVar::aHipar0 = 1.83  L(-1 - 10) 
        RooRealVar::aHipar1 = 0.008  L(-1 - 10) 
      RooRealVar::mgg_m160 = 160 C  L(144 - 176) B(2650) // [GeV]
      RooFormulaVar::cbNLo[ actualVars=(nLopar0) formula="@0" ] = 8.1327
        RooRealVar::nLopar0 = 8.1327  L(1 - 50) 
      RooFormulaVar::cbNHi[ actualVars=(nHipar0) formula="@0" ] = 15.746
        RooRealVar::nHipar0 = 15.746  L(1 - 100000) 
    RooExponential::Background_m160[ x=mgg_m160 c=xi ] = 0.0407622
      RooRealVar::mgg_m160 = 160 C  L(144 - 176) B(2650) // [GeV]
      RooRealVar::xi = -0.02 C  L(-INF - +INF) // [1/GeV]
    RooRealVar::nSignal_m160 = 10000  L(0 - 1e+08) 
    RooRealVar::nBackground_m160 = 0 C  L(0 - 1e+08) 
  RooAddPdf::hgg.model0_m180[ nSignal_m180 * Signal_m180 + nBackground_m180 * Background_m180 ] = 0.999804
    HggTwoSidedCBPdf::Signal_m180[ m=mgg_m180 m0=cbPeak_m180 sigma=cbSigma_m180 alphaLo=cbAlphaLo_m180 nLo=cbNLo alphaHi=cbAlphaHi_m180 nHi=cbNHi ] = 0.999804
      RooFormulaVar::cbPeak_m180[ actualVars=(mCBpar0,mCBpar1,delta_m180,mX_m180) formula="@0+@1*@2+@3" ] = 179.95
        RooFormulaVar::delta_m180[ actualVars=(mX_m180) formula="(@0-(100))/100" ] = 0.8
          RooRealVar::mX_m180 = 180 C  L(-INF - +INF) 
        RooRealVar::mX_m180 = 180 C  L(-INF - +INF) 
        RooRealVar::mCBpar0 = -0.01  L(-1 - 1) 
        RooRealVar::mCBpar1 = -0.05  L(-1 - 1) 
      RooFormulaVar::cbSigma_m180[ actualVars=(sCBpar0,sCBpar1,delta_m180) formula="@0+@1*@2" ] = 2.524
        RooFormulaVar::delta_m180[ actualVars=(mX_m180) formula="(@0-(100))/100" ] = 0.8
          RooRealVar::mX_m180 = 180 C  L(-INF - +INF) 
        RooRealVar::sCBpar0 = 1.78  L(0 - 3) 
        RooRealVar::sCBpar1 = 0.93  L(0 - 2) 
      RooFormulaVar::cbAlphaLo_m180[ actualVars=(aLopar0,aLopar1,delta_m180) formula="@0+@1*@2" ] = 1.516
        RooFormulaVar::delta_m180[ actualVars=(mX_m180) formula="(@0-(100))/100" ] = 0.8
          RooRealVar::mX_m180 = 180 C  L(-INF - +INF) 
        RooRealVar::aLopar0 = 1.5  L(-1 - 10) 
        RooRealVar::aLopar1 = 0.02  L(-1 - 50) 
      RooFormulaVar::cbAlphaHi_m180[ actualVars=(aHipar0,aHipar1,delta_m180) formula="@0+@1*@2" ] = 1.8364
        RooFormulaVar::delta_m180[ actualVars=(mX_m180) formula="(@0-(100))/100" ] = 0.8
          RooRealVar::mX_m180 = 180 C  L(-INF - +INF) 
        RooRealVar::aHipar0 = 1.83  L(-1 - 10) 
        RooRealVar::aHipar1 = 0.008  L(-1 - 10) 
      RooRealVar::mgg_m180 = 180 C  L(162 - 198) B(2650) // [GeV]
      RooFormulaVar::cbNLo[ actualVars=(nLopar0) formula="@0" ] = 8.1327
        RooRealVar::nLopar0 = 8.1327  L(1 - 50) 
      RooFormulaVar::cbNHi[ actualVars=(nHipar0) formula="@0" ] = 15.746
        RooRealVar::nHipar0 = 15.746  L(1 - 100000) 
    RooExponential::Background_m180[ x=mgg_m180 c=xi ] = 0.0273237
      RooRealVar::mgg_m180 = 180 C  L(162 - 198) B(2650) // [GeV]
      RooRealVar::xi = -0.02 C  L(-INF - +INF) // [1/GeV]
    RooRealVar::nSignal_m180 = 10000  L(0 - 1e+08) 
    RooRealVar::nBackground_m180 = 0 C  L(0 - 1e+08) 
  RooAddPdf::hgg.model0_m200[ nSignal_m200 * Signal_m200 + nBackground_m200 * Background_m200 ] = 0.999755
    HggTwoSidedCBPdf::Signal_m200[ m=mgg_m200 m0=cbPeak_m200 sigma=cbSigma_m200 alphaLo=cbAlphaLo_m200 nLo=cbNLo alphaHi=cbAlphaHi_m200 nHi=cbNHi ] = 0.999755
      RooFormulaVar::cbPeak_m200[ actualVars=(mCBpar0,mCBpar1,delta_m200,mX_m200) formula="@0+@1*@2+@3" ] = 199.94
        RooFormulaVar::delta_m200[ actualVars=(mX_m200) formula="(@0-(100))/100" ] = 1
          RooRealVar::mX_m200 = 200 C  L(-INF - +INF) 
        RooRealVar::mX_m200 = 200 C  L(-INF - +INF) 
        RooRealVar::mCBpar0 = -0.01  L(-1 - 1) 
        RooRealVar::mCBpar1 = -0.05  L(-1 - 1) 
      RooFormulaVar::cbSigma_m200[ actualVars=(sCBpar0,sCBpar1,delta_m200) formula="@0+@1*@2" ] = 2.71
        RooFormulaVar::delta_m200[ actualVars=(mX_m200) formula="(@0-(100))/100" ] = 1
          RooRealVar::mX_m200 = 200 C  L(-INF - +INF) 
        RooRealVar::sCBpar0 = 1.78  L(0 - 3) 
        RooRealVar::sCBpar1 = 0.93  L(0 - 2) 
      RooFormulaVar::cbAlphaLo_m200[ actualVars=(aLopar0,aLopar1,delta_m200) formula="@0+@1*@2" ] = 1.52
        RooFormulaVar::delta_m200[ actualVars=(mX_m200) formula="(@0-(100))/100" ] = 1
          RooRealVar::mX_m200 = 200 C  L(-INF - +INF) 
        RooRealVar::aLopar0 = 1.5  L(-1 - 10) 
        RooRealVar::aLopar1 = 0.02  L(-1 - 50) 
      RooFormulaVar::cbAlphaHi_m200[ actualVars=(aHipar0,aHipar1,delta_m200) formula="@0+@1*@2" ] = 1.838
        RooFormulaVar::delta_m200[ actualVars=(mX_m200) formula="(@0-(100))/100" ] = 1
          RooRealVar::mX_m200 = 200 C  L(-INF - +INF) 
        RooRealVar::aHipar0 = 1.83  L(-1 - 10) 
        RooRealVar::aHipar1 = 0.008  L(-1 - 10) 
      RooRealVar::mgg_m200 = 200 C  L(180 - 220) B(2650) // [GeV]
      RooFormulaVar::cbNLo[ actualVars=(nLopar0) formula="@0" ] = 8.1327
        RooRealVar::nLopar0 = 8.1327  L(1 - 50) 
      RooFormulaVar::cbNHi[ actualVars=(nHipar0) formula="@0" ] = 15.746
        RooRealVar::nHipar0 = 15.746  L(1 - 100000) 
    RooExponential::Background_m200[ x=mgg_m200 c=xi ] = 0.0183156
      RooRealVar::mgg_m200 = 200 C  L(180 - 220) B(2650) // [GeV]
      RooRealVar::xi = -0.02 C  L(-INF - +INF) // [1/GeV]
    RooRealVar::nSignal_m200 = 10000  L(0 - 1e+08) 
    RooRealVar::nBackground_m200 = 0 C  L(0 - 1e+08) 
  RooCategory::mHCat = m200(idx = 10)

 =======================     !!!!!!!!!!!!!!!!!!!!    ==================  
                      File       ../Tools/SignalParametrizationRun2/dummyMCinputSampleFolder/MC165504/HGGfitter_format_input/merged/gen16_13TeV_MG_merged.root 
                      dc_I       ../datacards/LowHighMassRun2/SP/MC165504/multiple_input_MG.dat 
                      dc_O       ../datacards/LowHighMassRun2/SP/MC165504/output_inclusive/multiple_MG.dat 
[#1] INFO:Eval -- RooTreeDataStore::loadValues(tree_dataSet) Ignored 96122 out of range events

RooFit::Minos = 0 (null)
RooFit::Hesse = 0 (null)
RooFit::Save = 1 (null)
RooFit::Extended = 1 (null)
RooFit::SumW2Error = 0 (null)
RooFit::Minimizer = 0 Minuit2
RooFit::OffsetLikelihood = 1 (null)
Verbose(2)
0x646a990 : OBJ: RooCmdArg	Minos	Minos
0x646aad0 : OBJ: RooCmdArg	Hesse	Hesse
0x646ac10 : OBJ: RooCmdArg	Save	Save
0x5fea8e0 : OBJ: RooCmdArg	Extended	Extended
0x5feaa20 : OBJ: RooCmdArg	SumW2Error	SumW2Error
0x5feab60 : OBJ: RooCmdArg	Minimizer	Minimizer
0x646a4f0 : OBJ: RooCmdArg	OffsetLikelihood	OffsetLikelihood
RooAbsTestStatistic::initSimMode: creating slave calculator #0 for state m60 (4066 dataset entries)
RooAbsTestStatistic::initSimMode: creating slave calculator #1 for state m70 (5909 dataset entries)
RooAbsTestStatistic::initSimMode: creating slave calculator #2 for state m80 (0 dataset entries)
RooAbsTestStatistic::initSimMode: creating slave calculator #3 for state m90 (1 dataset entries)
RooAbsTestStatistic::initSimMode: creating slave calculator #4 for state m100 (1 dataset entries)
RooAbsTestStatistic::initSimMode: creating slave calculator #5 for state m110 (4 dataset entries)
RooAbsTestStatistic::initSimMode: creating slave calculator #6 for state m120 (4 dataset entries)
RooAbsTestStatistic::initSimMode: creating slave calculator #7 for state m140 (1 dataset entries)
RooAbsTestStatistic::initSimMode: creating slave calculator #8 for state m160 (1 dataset entries)
RooAbsTestStatistic::initSimMode: creating slave calculator #9 for state m180 (2 dataset entries)
RooAbsTestStatistic::initSimMode: creating slave calculator #10 for state m200 (3 dataset entries)
[#1] INFO:Fitting -- RooAbsTestStatistic::initSimMode: created 11 slave calculators.
[#1] INFO:Minization -- RooMinimizer::optimizeConst: activating const optimization
[#1] INFO:Minization --  The following expressions have been identified as constant and will be precalculated and cached: (Background_m60)
[#1] INFO:Minization --  The following expressions will be evaluated in cache-and-track mode: (Signal_m60)
[#1] INFO:Minization --  The following expressions have been identified as constant and will be precalculated and cached: (Background_m70)
[#1] INFO:Minization --  The following expressions will be evaluated in cache-and-track mode: (Signal_m70)
[#1] INFO:Minization --  The following expressions have been identified as constant and will be precalculated and cached: (Background_m80)
[#1] INFO:Minization --  The following expressions will be evaluated in cache-and-track mode: (Signal_m80)
[#1] INFO:Minization --  The following expressions have been identified as constant and will be precalculated and cached: (Background_m90)
[#1] INFO:Minization --  The following expressions will be evaluated in cache-and-track mode: (Signal_m90)
[#1] INFO:Minization --  The following expressions have been identified as constant and will be precalculated and cached: (Background_m100)
[#1] INFO:Minization --  The following expressions will be evaluated in cache-and-track mode: (Signal_m100)
[#1] INFO:Minization --  The following expressions have been identified as constant and will be precalculated and cached: (Background_m110)
[#1] INFO:Minization --  The following expressions will be evaluated in cache-and-track mode: (Signal_m110)
[#1] INFO:Minization --  The following expressions have been identified as constant and will be precalculated and cached: (Background_m120)
[#1] INFO:Minization --  The following expressions will be evaluated in cache-and-track mode: (Signal_m120)
[#1] INFO:Minization --  The following expressions have been identified as constant and will be precalculated and cached: (Background_m140)
[#1] INFO:Minization --  The following expressions will be evaluated in cache-and-track mode: (Signal_m140)
[#1] INFO:Minization --  The following expressions have been identified as constant and will be precalculated and cached: (Background_m160)
[#1] INFO:Minization --  The following expressions will be evaluated in cache-and-track mode: (Signal_m160)
[#1] INFO:Minization --  The following expressions have been identified as constant and will be precalculated and cached: (Background_m180)
[#1] INFO:Minization --  The following expressions will be evaluated in cache-and-track mode: (Signal_m180)
[#1] INFO:Minization --  The following expressions have been identified as constant and will be precalculated and cached: (Background_m200)
[#1] INFO:Minization --  The following expressions will be evaluated in cache-and-track mode: (Signal_m200)
Minuit2Minimizer: Minimize with max-calls 10500 convergence for edm < 1 strategy 1
[#1] INFO:Minization -- RooNLLVar::evaluatePartition(m60) first = 0 last = 4066 Likelihood offset now set to -12427.9
[#1] INFO:Minization -- RooNLLVar::evaluatePartition(m70) first = 0 last = 5909 Likelihood offset now set to -22205.7
[#1] INFO:Minization -- RooNLLVar::evaluatePartition(m80) first = 0 last = 0 Likelihood offset now set to 10000
[#1] INFO:Minization -- RooNLLVar::evaluatePartition(m90) first = 0 last = 1 Likelihood offset now set to 9992.95
[#1] INFO:Minization -- RooNLLVar::evaluatePartition(m100) first = 0 last = 1 Likelihood offset now set to 9993.28
[#1] INFO:Minization -- RooNLLVar::evaluatePartition(m110) first = 0 last = 4 Likelihood offset now set to 9974.85
[#1] INFO:Minization -- RooNLLVar::evaluatePartition(m120) first = 0 last = 4 Likelihood offset now set to 9970.09
[#1] INFO:Minization -- RooNLLVar::evaluatePartition(m140) first = 0 last = 1 Likelihood offset now set to 9990.73
[#1] INFO:Minization -- RooNLLVar::evaluatePartition(m160) first = 0 last = 1 Likelihood offset now set to 9992.26
[#1] INFO:Minization -- RooNLLVar::evaluatePartition(m180) first = 0 last = 2 Likelihood offset now set to 9985.78
[#1] INFO:Minization -- RooNLLVar::evaluatePartition(m200) first = 0 last = 3 Likelihood offset now set to 9979.17
MnSeedGenerator: for initial parameters FCN = 5.456968210638e-12
MnSeedGenerator: Initial state:   - FCN = 5.456968210638e-12 Edm =      86583.2 NCalls =     85
MnSeedGenerator: Negative G2 found - new state:   - FCN =  -34412.07254715 Edm =       102654 NCalls =    305
VariableMetric: start iterating until Edm is < 0.001
VariableMetric: Initial state   - FCN =  -34412.07254715 Edm =       102654 NCalls =    305
VariableMetric: Iteration #   0 - FCN =  -34412.07254715 Edm =       102654 NCalls =    305
VariableMetric: Iteration #   1 - FCN =  -128599.4258501 Edm =      2059.36 NCalls =    365
VariableMetric: Iteration #   2 - FCN =   -130644.022611 Edm =      371.135 NCalls =    416
VariableMetric: Iteration #   3 - FCN =  -131604.4158246 Edm =      2004.89 NCalls =    476
VariableMetric: Iteration #   4 - FCN =  -132216.4146208 Edm =      3537.62 NCalls =    530
VariableMetric: Iteration #   5 - FCN =   -132480.717186 Edm =      1212.73 NCalls =    583
VariableMetric: Iteration #   6 - FCN =  -137560.7308678 Edm =       375490 NCalls =    641
VariableMetric: Iteration #   7 - FCN =  -143168.6900194 Edm =      587.116 NCalls =    697
VariableMetric: Iteration #   8 - FCN =  -143169.6260586 Edm =      14839.4 NCalls =    742
VariableMetric: Iteration #   9 - FCN =  -143603.9557737 Edm =      7164.76 NCalls =    787
VariableMetric: Iteration #  10 - FCN =  -143724.5370174 Edm =  3.01959e+06 NCalls =    836
VariableMetric: Iteration #  11 - FCN =  -144170.8806982 Edm =       213264 NCalls =    890
VariableMetric: Iteration #  12 - FCN =  -147169.1202867 Edm =  8.33667e+08 NCalls =    945
[#0] WARNING:Minization -- RooMinimizerFcn: Minimized function has error status.
Returning maximum FCN so far (907418) to force MIGRAD to back out of this region. Error log follows
Parameter values: aHipar0=8.30856, aHipar1=7.75986, aLopar0=6.88633, aLopar1=29.3606, mCBpar0=-0.371473, mCBpar1=-0.777135, nHipar0=854.532, nLopar0=2.29134, nSignal_m100=258109, nSignal_m110=3.4914e+06, nSignal_m120=5.53331e+06, nSignal_m140=474375, nSignal_m160=356420, nSignal_m180=1.12945e+06, nSignal_m200=2.65672e+06, nSignal_m60=29892.8, nSignal_m70=57661.2, nSignal_m80=23220, nSignal_m90=274182, sCBpar0=0.250708, sCBpar1=0.91614
HggTwoSidedCBPdf::Signal_m60[ m=mgg_m60 m0=cbPeak_m60 sigma=cbSigma_m60 alphaLo=cbAlphaLo_m60 nLo=cbNLo alphaHi=cbAlphaHi_m60 nHi=cbNHi ]
     p.d.f value is Not-a-Number (-nan), forcing value to zero @ m=mgg_m60=60, m0=cbPeak_m60=59.9394, sigma=cbSigma_m60=-0.115748, alphaLo=cbAlphaLo_m60=-4.85791, nLo=cbNLo=2.29134, alphaHi=cbAlphaHi_m60=5.20462, nHi=cbNHi=854.532
     p.d.f value is Not-a-Number (-nan), forcing value to zero @ m=mgg_m60=60, m0=cbPeak_m60=59.9394, sigma=cbSigma_m60=-0.115748, alphaLo=cbAlphaLo_m60=-4.85791, nLo=cbNLo=2.29134, alphaHi=cbAlphaHi_m60=5.20462, nHi=cbNHi=854.532
     p.d.f value is Not-a-Number (-nan), forcing value to zero @ m=mgg_m60=60, m0=cbPeak_m60=59.9394, sigma=cbSigma_m60=-0.115748, alphaLo=cbAlphaLo_m60=-4.85791, nLo=cbNLo=2.29134, alphaHi=cbAlphaHi_m60=5.20462, nHi=cbNHi=854.532
     p.d.f value is Not-a-Number (-nan), forcing value to zero @ m=mgg_m60=60, m0=cbPeak_m60=59.9394, sigma=cbSigma_m60=-0.115748, alphaLo=cbAlphaLo_m60=-4.85791, nLo=cbNLo=2.29134, alphaHi=cbAlphaHi_m60=5.20462, nHi=cbNHi=854.532
     p.d.f value is Not-a-Number (-nan), forcing value to zero @ m=mgg_m60=60, m0=cbPeak_m60=59.9394, sigma=cbSigma_m60=-0.115748, alphaLo=cbAlphaLo_m60=-4.85791, nLo=cbNLo=2.29134, alphaHi=cbAlphaHi_m60=5.20462, nHi=cbNHi=854.532
     p.d.f value is Not-a-Number (-nan), forcing value to zero @ m=mgg_m60=60, m0=cbPeak_m60=59.9394, sigma=cbSigma_m60=-0.115748, alphaLo=cbAlphaLo_m60=-4.85791, nLo=cbNLo=2.29134, alphaHi=cbAlphaHi_m60=5.20462, nHi=cbNHi=854.532
     p.d.f value is Not-a-Number (-nan), forcing value to zero @ m=mgg_m60=60, m0=cbPeak_m60=59.9394, sigma=cbSigma_m60=-0.115748, alphaLo=cbAlphaLo_m60=-4.85791, nLo=cbNLo=2.29134, alphaHi=cbAlphaHi_m60=5.20462, nHi=cbNHi=854.532
     p.d.f value is Not-a-Number (-nan), forcing value to zero @ m=mgg_m60=60, m0=cbPeak_m60=59.9394, sigma=cbSigma_m60=-0.115748, alphaLo=cbAlphaLo_m60=-4.85791, nLo=cbNLo=2.29134, alphaHi=cbAlphaHi_m60=5.20462, nHi=cbNHi=854.532
     p.d.f value is Not-a-Number (-nan), forcing value to zero @ m=mgg_m60=60, m0=cbPeak_m60=59.9394, sigma=cbSigma_m60=-0.115748, alphaLo=cbAlphaLo_m60=-4.85791, nLo=cbNLo=2.29134, alphaHi=cbAlphaHi_m60=5.20462, nHi=cbNHi=854.532
     p.d.f value is Not-a-Number (-nan), forcing value to zero @ m=mgg_m60=60, m0=cbPeak_m60=59.9394, sigma=cbSigma_m60=-0.115748, alphaLo=cbAlphaLo_m60=-4.85791, nLo=cbNLo=2.29134, alphaHi=cbAlphaHi_m60=5.20462, nHi=cbNHi=854.532
     p.d.f value is Not-a-Number (-nan), forcing value to zero @ m=mgg_m60=60, m0=cbPeak_m60=59.9394, sigma=cbSigma_m60=-0.115748, alphaLo=cbAlphaLo_m60=-4.85791, nLo=cbNLo=2.29134, alphaHi=cbAlphaHi_m60=5.20462, nHi=cbNHi=854.532
     p.d.f value is Not-a-Number (-nan), forcing value to zero @ m=mgg_m60=60, m0=cbPeak_m60=59.9394, sigma=cbSigma_m60=-0.115748, alphaLo=cbAlphaLo_m60=-4.85791, nLo=cbNLo=2.29134, alphaHi=cbAlphaHi_m60=5.20462, nHi=cbNHi=854.532
    ... (remaining 2038 messages suppressed)
RooAddPdf::hgg.model0_m60[ nSignal_m60 * Signal_m60 + nBackground_m60 * Background_m60 ]
     getLogVal() top-level p.d.f evaluates to zero @ !refCoefNorm=(), !pdfs=(Signal_m60 = -nan/-nan,Background_m60 = 0.301194/3.62301), !coefficients=(nSignal_m60 = 29892.8,nBackground_m60 = 0)
     getLogVal() top-level p.d.f evaluates to zero @ !refCoefNorm=(), !pdfs=(Signal_m60 = -nan/-nan,Background_m60 = 0.301194/3.62301), !coefficients=(nSignal_m60 = 29892.8,nBackground_m60 = 0)
     getLogVal() top-level p.d.f evaluates to zero @ !refCoefNorm=(), !pdfs=(Signal_m60 = -nan/-nan,Background_m60 = 0.301194/3.62301), !coefficients=(nSignal_m60 = 29892.8,nBackground_m60 = 0)
     getLogVal() top-level p.d.f evaluates to zero @ !refCoefNorm=(), !pdfs=(Signal_m60 = -nan/-nan,Background_m60 = 0.301194/3.62301), !coefficients=(nSignal_m60 = 29892.8,nBackground_m60 = 0)
     getLogVal() top-level p.d.f evaluates to zero @ !refCoefNorm=(), !pdfs=(Signal_m60 = -nan/-nan,Background_m60 = 0.301194/3.62301), !coefficients=(nSignal_m60 = 29892.8,nBackground_m60 = 0)
     getLogVal() top-level p.d.f evaluates to zero @ !refCoefNorm=(), !pdfs=(Signal_m60 = -nan/-nan,Background_m60 = 0.301194/3.62301), !coefficients=(nSignal_m60 = 29892.8,nBackground_m60 = 0)
     getLogVal() top-level p.d.f evaluates to zero @ !refCoefNorm=(), !pdfs=(Signal_m60 = -nan/-nan,Background_m60 = 0.301194/3.62301), !coefficients=(nSignal_m60 = 29892.8,nBackground_m60 = 0)
     getLogVal() top-level p.d.f evaluates to zero @ !refCoefNorm=(), !pdfs=(Signal_m60 = -nan/-nan,Background_m60 = 0.301194/3.62301), !coefficients=(nSignal_m60 = 29892.8,nBackground_m60 = 0)
     getLogVal() top-level p.d.f evaluates to zero @ !refCoefNorm=(), !pdfs=(Signal_m60 = -nan/-nan,Background_m60 = 0.301194/3.62301), !coefficients=(nSignal_m60 = 29892.8,nBackground_m60 = 0)
     getLogVal() top-level p.d.f evaluates to zero @ !refCoefNorm=(), !pdfs=(Signal_m60 = -nan/-nan,Background_m60 = 0.301194/3.62301), !coefficients=(nSignal_m60 = 29892.8,nBackground_m60 = 0)
     getLogVal() top-level p.d.f evaluates to zero @ !refCoefNorm=(), !pdfs=(Signal_m60 = -nan/-nan,Background_m60 = 0.301194/3.62301), !coefficients=(nSignal_m60 = 29892.8,nBackground_m60 = 0)
     getLogVal() top-level p.d.f evaluates to zero @ !refCoefNorm=(), !pdfs=(Signal_m60 = -nan/-nan,Background_m60 = 0.301194/3.62301), !coefficients=(nSignal_m60 = 29892.8,nBackground_m60 = 0)
    ... (remaining 2038 messages suppressed)
RooAddPdf::hgg.model0_m70[ nSignal_m70 * Signal_m70 + nBackground_m70 * Background_m70 ]
     getLogVal() top-level p.d.f evaluates to zero @ !refCoefNorm=(), !pdfs=(Signal_m70 = -nan/-nan,Background_m70 = 0.246597/3.46365), !coefficients=(nSignal_m70 = 57661.2,nBackground_m70 = 0)
     getLogVal() top-level p.d.f evaluates to zero @ !refCoefNorm=(), !pdfs=(Signal_m70 = -nan/-nan,Background_m70 = 0.246597/3.46365), !coefficients=(nSignal_m70 = 57661.2,nBackground_m70 = 0)
     getLogVal() top-level p.d.f evaluates to zero @ !refCoefNorm=(), !pdfs=(Signal_m70 = -nan/-nan,Background_m70 = 0.246597/3.46365), !coefficients=(nSignal_m70 = 57661.2,nBackground_m70 = 0)
     getLogVal() top-level p.d.f evaluates to zero @ !refCoefNorm=(), !pdfs=(Signal_m70 = -nan/-nan,Background_m70 = 0.246597/3.46365), !coefficients=(nSignal_m70 = 57661.2,nBackground_m70 = 0)
     getLogVal() top-level p.d.f evaluates to zero @ !refCoefNorm=(), !pdfs=(Signal_m70 = -nan/-nan,Background_m70 = 0.246597/3.46365), !coefficients=(nSignal_m70 = 57661.2,nBackground_m70 = 0)
     getLogVal() top-level p.d.f evaluates to zero @ !refCoefNorm=(), !pdfs=(Signal_m70 = -nan/-nan,Background_m70 = 0.246597/3.46365), !coefficients=(nSignal_m70 = 57661.2,nBackground_m70 = 0)
     getLogVal() top-level p.d.f evaluates to zero @ !refCoefNorm=(), !pdfs=(Signal_m70 = -nan/-nan,Background_m70 = 0.246597/3.46365), !coefficients=(nSignal_m70 = 57661.2,nBackground_m70 = 0)
     getLogVal() top-level p.d.f evaluates to zero @ !refCoefNorm=(), !pdfs=(Signal_m70 = -nan/-nan,Background_m70 = 0.246597/3.46365), !coefficients=(nSignal_m70 = 57661.2,nBackground_m70 = 0)
     getLogVal() top-level p.d.f evaluates to zero @ !refCoefNorm=(), !pdfs=(Signal_m70 = -nan/-nan,Background_m70 = 0.246597/3.46365), !coefficients=(nSignal_m70 = 57661.2,nBackground_m70 = 0)
     getLogVal() top-level p.d.f evaluates to zero @ !refCoefNorm=(), !pdfs=(Signal_m70 = -nan/-nan,Background_m70 = 0.246597/3.46365), !coefficients=(nSignal_m70 = 57661.2,nBackground_m70 = 0)
     getLogVal() top-level p.d.f evaluates to zero @ !refCoefNorm=(), !pdfs=(Signal_m70 = -nan/-nan,Background_m70 = 0.246597/3.46365), !coefficients=(nSignal_m70 = 57661.2,nBackground_m70 = 0)
     getLogVal() top-level p.d.f evaluates to zero @ !refCoefNorm=(), !pdfs=(Signal_m70 = -nan/-nan,Background_m70 = 0.246597/3.46365), !coefficients=(nSignal_m70 = 57661.2,nBackground_m70 = 0)
    ... (remaining 2038 messages suppressed)
HggTwoSidedCBPdf::Signal_m70[ m=mgg_m70 m0=cbPeak_m70 sigma=cbSigma_m70 alphaLo=cbAlphaLo_m70 nLo=cbNLo alphaHi=cbAlphaHi_m70 nHi=cbNHi ]
     p.d.f value is Not-a-Number (-nan), forcing value to zero @ m=mgg_m70=70, m0=cbPeak_m70=69.8617, sigma=cbSigma_m70=-0.0241342, alphaLo=cbAlphaLo_m70=-1.92185, nLo=cbNLo=2.29134, alphaHi=cbAlphaHi_m70=5.9806, nHi=cbNHi=854.532
     p.d.f value is Not-a-Number (-nan), forcing value to zero @ m=mgg_m70=70, m0=cbPeak_m70=69.8617, sigma=cbSigma_m70=-0.0241342, alphaLo=cbAlphaLo_m70=-1.92185, nLo=cbNLo=2.29134, alphaHi=cbAlphaHi_m70=5.9806, nHi=cbNHi=854.532
     p.d.f value is Not-a-Number (-nan), forcing value to zero @ m=mgg_m70=70, m0=cbPeak_m70=69.8617, sigma=cbSigma_m70=-0.0241342, alphaLo=cbAlphaLo_m70=-1.92185, nLo=cbNLo=2.29134, alphaHi=cbAlphaHi_m70=5.9806, nHi=cbNHi=854.532
     p.d.f value is Not-a-Number (-nan), forcing value to zero @ m=mgg_m70=70, m0=cbPeak_m70=69.8617, sigma=cbSigma_m70=-0.0241342, alphaLo=cbAlphaLo_m70=-1.92185, nLo=cbNLo=2.29134, alphaHi=cbAlphaHi_m70=5.9806, nHi=cbNHi=854.532
     p.d.f value is Not-a-Number (-nan), forcing value to zero @ m=mgg_m70=70, m0=cbPeak_m70=69.8617, sigma=cbSigma_m70=-0.0241342, alphaLo=cbAlphaLo_m70=-1.92185, nLo=cbNLo=2.29134, alphaHi=cbAlphaHi_m70=5.9806, nHi=cbNHi=854.532
     p.d.f value is Not-a-Number (-nan), forcing value to zero @ m=mgg_m70=70, m0=cbPeak_m70=69.8617, sigma=cbSigma_m70=-0.0241342, alphaLo=cbAlphaLo_m70=-1.92185, nLo=cbNLo=2.29134, alphaHi=cbAlphaHi_m70=5.9806, nHi=cbNHi=854.532
     p.d.f value is Not-a-Number (-nan), forcing value to zero @ m=mgg_m70=70, m0=cbPeak_m70=69.8617, sigma=cbSigma_m70=-0.0241342, alphaLo=cbAlphaLo_m70=-1.92185, nLo=cbNLo=2.29134, alphaHi=cbAlphaHi_m70=5.9806, nHi=cbNHi=854.532
     p.d.f value is Not-a-Number (-nan), forcing value to zero @ m=mgg_m70=70, m0=cbPeak_m70=69.8617, sigma=cbSigma_m70=-0.0241342, alphaLo=cbAlphaLo_m70=-1.92185, nLo=cbNLo=2.29134, alphaHi=cbAlphaHi_m70=5.9806, nHi=cbNHi=854.532
     p.d.f value is Not-a-Number (-nan), forcing value to zero @ m=mgg_m70=70, m0=cbPeak_m70=69.8617, sigma=cbSigma_m70=-0.0241342, alphaLo=cbAlphaLo_m70=-1.92185, nLo=cbNLo=2.29134, alphaHi=cbAlphaHi_m70=5.9806, nHi=cbNHi=854.532
     p.d.f value is Not-a-Number (-nan), forcing value to zero @ m=mgg_m70=70, m0=cbPeak_m70=69.8617, sigma=cbSigma_m70=-0.0241342, alphaLo=cbAlphaLo_m70=-1.92185, nLo=cbNLo=2.29134, alphaHi=cbAlphaHi_m70=5.9806, nHi=cbNHi=854.532
     p.d.f value is Not-a-Number (-nan), forcing value to zero @ m=mgg_m70=70, m0=cbPeak_m70=69.8617, sigma=cbSigma_m70=-0.0241342, alphaLo=cbAlphaLo_m70=-1.92185, nLo=cbNLo=2.29134, alphaHi=cbAlphaHi_m70=5.9806, nHi=cbNHi=854.532
     p.d.f value is Not-a-Number (-nan), forcing value to zero @ m=mgg_m70=70, m0=cbPeak_m70=69.8617, sigma=cbSigma_m70=-0.0241342, alphaLo=cbAlphaLo_m70=-1.92185, nLo=cbNLo=2.29134, alphaHi=cbAlphaHi_m70=5.9806, nHi=cbNHi=854.532
    ... (remaining 2038 messages suppressed)
RooNLLVar::m70[ paramSet=(aHipar0,aHipar1,aLopar0,aLopar1,mCBpar0,mCBpar1,mX_m70,nBackground_m70,nHipar0,nLopar0,nSignal_m70,sCBpar0,sCBpar1,xi) ]
     function value is NAN @ paramSet=(aHipar0 = 8.30856,aHipar1 = 7.75986,aLopar0 = 6.88633,aLopar1 = 29.3606,mCBpar0 = -0.371473,mCBpar1 = -0.777135,mX_m70 = 70,nBackground_m70 = 0,nHipar0 = 854.532,nLopar0 = 2.29134,nSignal_m70 = 57661.2,sCBpar0 = 0.250708,sCBpar1 = 0.91614,xi = -0.02)
RooRealIntegral::Signal_m70_Int[mgg_m70][ Int Signal_m70d[Ana](mgg_m70) ]
     function value is NAN @ !sumList=(), !intList=(), !anaList=(mgg_m70 = 70), !jacList=(), !facList=(), !func=Signal_m70=-nan/0.230705, !sumCat=()
RooRealIntegral::Signal_m60_Int[mgg_m60][ Int Signal_m60d[Ana](mgg_m60) ]
     function value is NAN @ !sumList=(), !intList=(), !anaList=(mgg_m60 = 60), !jacList=(), !facList=(), !func=Signal_m60=-nan/0.00011811, !sumCat=()
RooNLLVar::m60[ paramSet=(aHipar0,aHipar1,aLopar0,aLopar1,mCBpar0,mCBpar1,mX_m60,nBackground_m60,nHipar0,nLopar0,nSignal_m60,sCBpar0,sCBpar1,xi) ]
     function value is NAN @ paramSet=(aHipar0 = 8.30856,aHipar1 = 7.75986,aLopar0 = 6.88633,aLopar1 = 29.3606,mCBpar0 = -0.371473,mCBpar1 = -0.777135,mX_m60 = 60,nBackground_m60 = 0,nHipar0 = 854.532,nLopar0 = 2.29134,nSignal_m60 = 29892.8,sCBpar0 = 0.250708,sCBpar1 = 0.91614,xi = -0.02)
RooNLLVar::nll_hgg_tree_dataSet[ paramSet=(aHipar0,aHipar1,aLopar0,aLopar1,mCBpar0,mCBpar1,mX_m100,mX_m110,mX_m120,mX_m140,mX_m160,mX_m180,mX_m200,mX_m60,mX_m70,mX_m80,mX_m90,nBackground_m100,nBackground_m110,nBackground_m120,nBackground_m140,nBackground_m160,nBackground_m180,nBackground_m200,nBackground_m60,nBackground_m70,nBackground_m80,nBackground_m90,nHipar0,nLopar0,nSignal_m100,nSignal_m110,nSignal_m120,nSignal_m140,nSignal_m160,nSignal_m180,nSignal_m200,nSignal_m60,nSignal_m70,nSignal_m80,nSignal_m90,sCBpar0,sCBpar1,xi) ]
     function value is NAN @ paramSet=(aHipar0 = 8.30856,aHipar1 = 7.75986,aLopar0 = 6.88633,aLopar1 = 29.3606,mCBpar0 = -0.371473,mCBpar1 = -0.777135,mX_m100 = 100,mX_m110 = 110,mX_m120 = 120,mX_m140 = 140,mX_m160 = 160,mX_m180 = 180,mX_m200 = 200,mX_m60 = 60,mX_m70 = 70,mX_m80 = 80,mX_m90 = 90,nBackground_m100 = 0,nBackground_m110 = 0,nBackground_m120 = 0,nBackground_m140 = 0,nBackground_m160 = 0,nBackground_m180 = 0,nBackground_m200 = 0,nBackground_m60 = 0,nBackground_m70 = 0,nBackground_m80 = 0,nBackground_m90 = 0,nHipar0 = 854.532,nLopar0 = 2.29134,nSignal_m100 = 258109,nSignal_m110 = 3.4914e+06,nSignal_m120 = 5.53331e+06,nSignal_m140 = 474375,nSignal_m160 = 356420,nSignal_m180 = 1.12945e+06,nSignal_m200 = 2.65672e+06,nSignal_m60 = 29892.8,nSignal_m70 = 57661.2,nSignal_m80 = 23220,nSignal_m90 = 274182,sCBpar0 = 0.250708,sCBpar1 = 0.91614,xi = -0.02)

VariableMetric: Iteration #  13 - FCN =  -147169.1202867 Edm =  8.33667e+08 NCalls =    956
Minuit2Minimizer : Invalid Minimum - status = 3
FVAL  = -147169
Edm   = 8.33667e+08
Nfcn  = 945
[#1] INFO:Minization -- RooMinimizer::optimizeConst: deactivating const optimization
final NLL = -147169.12029, status = -1
  1) RooRealVar::      mCBpar0 = -0.014902 +/- 7.96661e-05
  2) RooRealVar::      mCBpar1 = -0.0374254 +/- 0.000199152
  3) RooRealVar::      sCBpar0 = 0.36801 +/- 1.96501e-05
  4) RooRealVar::      sCBpar1 = 0.920143 +/- 3.87053e-05
  5) RooRealVar::      aLopar0 = 2.47866 +/- 0.0254561
  6) RooRealVar::      aLopar1 = -0.835704 +/- 0.0209598
  7) RooRealVar::      aHipar0 = 2.70742 +/- 0.0402168
  8) RooRealVar::      aHipar1 = -0.847377 +/- 0.0352704
  9) RooRealVar::      nLopar0 = 16.8111 +/- 0.694246
 10) RooRealVar::      nHipar0 = 36.0285 +/- 3.5903
 11) RooRealVar::  nSignal_m60 = 4046.13 +/- 75.198
 12) RooRealVar::  nSignal_m70 = 6050.82 +/- 86.5792
 13) RooRealVar::  nSignal_m80 = 0.491124 +/- 0.987097
 14) RooRealVar::  nSignal_m90 = 3.57471 +/- 2.63053
 15) RooRealVar:: nSignal_m100 = 3.23335 +/- 2.5038
 16) RooRealVar:: nSignal_m110 = 122.744 +/- 12.2267
 17) RooRealVar:: nSignal_m120 = 233.413 +/- 12.8066
 18) RooRealVar:: nSignal_m140 = 8.34375 +/- 3.97732
 19) RooRealVar:: nSignal_m160 = 5.43048 +/- 3.22864
 20) RooRealVar:: nSignal_m180 = 27.7224 +/- 6.98275
 21) RooRealVar:: nSignal_m200 = 85.2772 +/- 10.9884
----------------- weight to use: weightN
---------------- 
######   var: 60, min: -1e+30 - max 1e+30
######   var: -0.014902, min: -1 - max 1
######   var: -0.0374254, min: -1 - max 1
######   var: 0.36801, min: 0 - max 3
######   var: 0.920143, min: 0 - max 2
######   var: 2.47866, min: -1 - max 10
######   var: -0.835704, min: -1 - max 50
######   var: 2.70742, min: -1 - max 10
######   var: -0.847377, min: -1 - max 10
######   var: 60, min: 54 - max 66
######   var: 16.8111, min: 1 - max 50
######   var: 36.0285, min: 1 - max 100000
######   var: -0.02, min: -1e+30 - max 1e+30
######   var: 4046.13, min: 0 - max 1e+08
######   var: 0, min: 0 - max 1e+08
######   var: 70, min: -1e+30 - max 1e+30
######   var: 70, min: 63 - max 77
######   var: 6050.82, min: 0 - max 1e+08
######   var: 0, min: 0 - max 1e+08
######   var: 80, min: -1e+30 - max 1e+30
######   var: 80, min: 72 - max 88
----------------FINISHED THE MERGE FIT FOR MG
