observable mgg = 80 min=72 max=88 bins=2500

component Signal = Hgg2sCBPdfBuilder("mgg", "cbPeak", "cbSigma", "cbAlphaLo", "cbNLo", "cbAlphaHi", "cbNHi")
component Background = HftGenericPdfBuilder("mgg", "exp(xi*mgg)","xi") 

[Parameters]
nSignal     = 123952 min=0 max=1E7
nBackground = 0  min=0 max=1E7 const=true 

formula cbPeak  = (mX + dmX)

mX = 2000
dmX =  -0.3 min=-15 max=15 
cbSigma =  12 min=0 max=60
cbAlphaLo =  1.8 min=0.5 max=6
cbAlphaHi =  2.1 min=0.5 max=7
cbNLo = 6.3557 min=1 max=10 const=true    
cbNHi = 53.615 min=1 max=100 const=true    

[Background]
xi = -0.02 
