
[hgg]
mgg =  80.000 L(99 - 121) B(44) 
mX =  110.00 C L(-INF - +INF) 
dmX =  0.12042 +/- 0.090506 L(-1 - 1) 
cbSigma =  2.2264 +/- 0.091342 L(0 - 50) // [GeV]
cbAlphaLo =  2.2953 +/- 0.25103 L(-1 - 50) 
cbNLo =  2.1193 C L(1 - 15) 
cbAlphaHi =  7.3766 +/- 0.024252 L(-1 - 50) 
cbNHi =  2.0705 C L(1 - 100) 
xi = -0.0200000 C L(-INF - +INF) 
nSignal =  980.56 +/- 43.237 L(0 - 1e+07) 
nBackground =  0.0000 C L(0 - 1e+07) 
