
[hgg]
mgg =  80.000 L(180 - 220) B(80) 
mX =  200.00 C L(-INF - +INF) 
dmX =  0.080982 +/- 0.050348 L(-15 - 15) 
cbSigma =  2.2650 +/- 0.063272 L(0 - 60) // [GeV]
cbAlphaLo =  1.5339 +/- 0.074018 L(0.5 - 6) 
cbNLo =  6.2156 C L(1 - 50) 
cbAlphaHi =  1.4615 +/- 0.10485 L(0.5 - 10) 
cbNHi =  29197 C L(1 - 100000) 
xi = -0.0200000 C L(-INF - +INF) 
nSignal =  5533.4 +/- 96.145 L(0 - 1e+07) 
nBackground =  0.0000 C L(0 - 1e+07) 
