//////////////////////////////////////////////////////////////////
[Dependents]
//////////////////////////////////////////////////////////////////

mgg = L(60 - 122) B(1240) // [GeV] gamma-gamma invariant mass

//////////////////////////////////////////////////////////////////
[Parameters]
//////////////////////////////////////////////////////////////////

formula Gamma = (5 + 0.01*mX)

#include "hfitter_fiducialXsec_catLowMass_largeWidth.dat"

//////////////////////////////////////////////////////////////////
[Parameters]
//////////////////////////////////////////////////////////////////

sigmaBkg_unconv = 169.2
sigmaBkg_oneConv = 181.1
sigmaBkg_twoConv = 38.7
