#include "hfitter_newResRun2_highMass_HiggsNW_ICHEP.dat"
#include "hfitter_newResRun2_lumi_2015+2016.dat"

category catYear = (2015, 2016)

split xs along catYear
split normLumi along catYear
//split sigmaLumi along catYear
split nBackground along catYear

// formula xs_2016 = (xs_2015 + deltaXS)
// xs_2015 = 0 min=0 max=50
// deltaXS = 0 min=-50 max=50 title="#sigma_{2016} - #sigma_{2015}" unit="fb"

formula xs_2016 = (xs_2015 * kXS)
xs_2015 = 0 min=0 max=50
kXS = 0 min=-1 max=50 title="#sigma_{2016} / #sigma_{2015}"

mX = 728  min=160 max=2000 const=true

nBackground_2015 = 7765  min=100 max=20000
nBackground_2016 = 5885  min=100 max=20000
p1 = 2.623  min=-20 max=20
p2 = 4.004  min=-20 max=20

dEScaleUncor = 0 min=-5 max=+5 title="#theta_{ESS}" 

