#include "hfitter_newResRun2_highMass_HiggsConvol_2016.dat"
#include "hfitter_newResRun2_lumi_2015+2016.dat"

category catYear = (2015, 2016)

split normLumi along catYear
//split sigmaLumi along catYear
split nBackground along catYear
split CX0 along catYear
split CX1 along catYear
split CX2 along catYear

mX = 744  min=180 max=2700 const=true
GammaOverMX = 0.09 min=0.001 max=0.10 const=true

nBackground_2015 = 4283  min=100 max=20000
nBackground_2016 = 42245  min=100 max=80000
p1 = 6.049  min=-20 max=20
p2 = 3.815  min=-20 max=20

CX0_2015 =  0.763
CX1_2015 =  0.356
CX2_2015 = -0.00820

CX0_2016 =  0.748
CX1_2016 =  0.225
CX2_2016 = -0.00358
