#include "hfitter_newResRun2_highMass_GravitonLooseConvol_ICHEP.dat"
#include "hfitter_newResRun2_lumi_2015.dat"

mX = 750 min=250 max=2500 const=true
kappa = 0.22 min=0.02 max=0.30 const=true

nBackground = 4772  min=100 max=20000
p1 = 25.5835  min=-100 max=100
p2 = -2.38226  min=-10 max=10
p3 = 0.104948  min=-10 max=10
