observable mgg = 300 min=220 max=2500 bins=2280 title="m_{#gamma#gamma}" unit=GeV
mX = 749 const=true min=200 max=2500 unit=GeV title="m_{X}"

category dummyCat = ( inclusive )

formula sigmaBkg = (normLumi/4.0*sigmaBkg0*pow(mX/13000,-sigmaBkg2)*pow(1-pow(mX/13000, 1./3),sigmaBkg1));

sigmaBkg0 = 0.044
sigmaBkg1 = 3.4
sigmaBkg2 = 1.3

#include "hfitter_newResRun2_highMass_nSignal.dat"
#include "hfitter_newResRun2_highMass_GravitonNW_Signal_ICHEP.dat"
#include "hfitter_newResRun2_highMass_Graviton_Bkg.dat"

nBackground = 9627 min=100 max=50000
p1 = -7.60388  min=-100 max=0
p2 = -0.523232  min=-10 max=10

// No energy scale
dEScale = 0

normLumi = 3.21
