// Run 2 Higgs Abs pTcut, Tight Iso NWA for convolution with LS
/////////////////////////////////////

//component Signal = HggBWx2sCBPdfBuilder("mgg", "bwPeak", "bwGamma", "cbPeakSignal", "cbSigmaSignal", "cbALoSignal", "cbNLoSignal", "cbAHiSignal", "cbNHiSignal")
component Signal = HggPowHegLSPdfBuilder("mgg", "bwPeak", "bwGamma", "cbPeakSignal", "cbSigmaSignal", "cbALoSignal", "cbNLoSignal", "cbAHiSignal", "cbNHiSignal")

constraint dSigAux = RooGaussian("dSigAux",    "dSig",    "unitSigma")
dSig    = 0 min=-5 max=+5 title="#theta_{#sigma}"
dSigAux = 0 const=true min=-5 max=+5 
unitSigma = 1

formula mnX = ((mX - (100))/100)

formula cbSigmaSignal0  = (sCBSignal0   + sCBSignal1*mnX)
formula cbSigmaSignalUp = (sCBSignal0Up + sCBSignal1Up*mnX)
formula cbSigmaSignalDn = (sCBSignal0Dn + sCBSignal1Dn*mnX)
formula deltaMSignal0  = (mCBSignal0 + mCBSignal1*mnX + mCBSignal2*mnX*mnX)
formula deltaMSignalUp = (mCBSignal0Up + mCBSignal1Up*mnX + mCBSignal2Up*mnX*mnX)
formula deltaMSignalDn = (mCBSignal0Dn + mCBSignal1Dn*mnX + mCBSignal2Dn*mnX*mnX)
formula cbALoSignal = (aLoSignal0 + aLoSignal1*mnX + aLoSignal2*mnX*mnX)
formula cbNLoSignal = (nLoSignal0)
formula cbAHiSignal = (aHiSignal0 + aHiSignal1*mnX + aHiSignal2*mnX*mnX)
formula cbNHiSignal = (nHiSignal0)

formula onePlusSigmaSigUp = (cbSigmaSignalUp/cbSigmaSignal0)
formula onePlusSigmaSigDn = (cbSigmaSignalDn/cbSigmaSignal0)
interpolate kSig along dSig using (1, onePlusSigmaSigDn, onePlusSigmaSigUp, 4)

formula onePlusDeltaMUp = (deltaMSignalUp/deltaMSignal0)
formula onePlusDeltaMDn = (deltaMSignalDn/deltaMSignal0)
interpolate kDeltaM along dEScale using (1, onePlusDeltaMDn, onePlusDeltaMUp, 0)

formula cbSigmaSignal = (cbSigmaSignal0*kSig)
formula deltaMSignal = (deltaMSignal0*kDeltaM)
formula cbPeakSignal  = (deltaMSignal)

formula bwPeak = (mX)
formula bwGamma = (mX*GammaOverMX)
  
mCBSignal0 = 0.074853
mCBSignal1 = -0.0610393
mCBSignal2 = 0.0010570
nHiSignal0 = 8.0561
aLoSignal0 = 1.4265
aLoSignal1 = -0.00420892
aLoSignal2 = 0.00019174
sCBSignal0 = 1.5321
sCBSignal1 = 0.63131
nLoSignal0 = 10.240
aHiSignal0 = 1.8028
aHiSignal1 = 0.010406
aHiSignal2 = -0.000915815

mCBSignal0Up = 0.33138
mCBSignal1Up = 0.72476
mCBSignal2Up = -0.00286713
mCBSignal0Dn = -0.350126
mCBSignal1Dn = -0.792718
mCBSignal2Dn = 0.0022236

sCBSignal0Up = 1.5719
sCBSignal1Up = 0.98931
sCBSignal0Dn = 1.3377
sCBSignal1Dn = 0.31957
