40 	 0.066989 	 0.037372 	 0.65020 	 0.030469 	 1.6197 C L(0.5 - 6) 	 cbAlphaLo = 1.6197 C 	 1.4168 C L(0.5 - 10) 	 cbAlphaHi = 1.4168 C
50 	 0.16885 	 0.087588 	 0.88258 	 0.024638 	 1.6197 C L(0.5 - 6) 	 cbAlphaLo = 1.6197 C 	 1.4168 C L(0.5 - 10) 	 cbAlphaHi = 1.4168 C
60 	 0.11681 	 0.025075 	 1.1027 	 0.019404 	 1.6197 C L(0.5 - 6) 	 cbAlphaLo = 1.6197 C 	 1.4168 C L(0.5 - 10) 	 cbAlphaHi = 1.4168 C
70 	 0.099971 	 0.023645 	 1.2388 	 0.018709 	 1.6197 C L(0.5 - 6) 	 cbAlphaLo = 1.6197 C 	 1.4168 C L(0.5 - 10) 	 cbAlphaHi = 1.4168 C
80 	 0.086666 	 0.022921 	 1.3341 	 0.017914 	 1.6197 C L(0.5 - 6) 	 cbAlphaLo = 1.6197 C 	 1.4168 C L(0.5 - 10) 	 cbAlphaHi = 1.4168 C
90 	 -0.0341913 	 0.10047 	 1.4593 	 0.075058 	 1.6197 C L(0.5 - 6) 	 cbAlphaLo = 1.6197 C 	 1.4168 C L(0.5 - 10) 	 cbAlphaHi = 1.4168 C
100 	 0.16570 	 0.062657 	 1.5397 	 0.045743 	 1.6197 C L(0.5 - 6) 	 cbAlphaLo = 1.6197 C 	 1.4168 C L(0.5 - 10) 	 cbAlphaHi = 1.4168 C
110 	 0.097175 	 0.049228 	 1.5652 	 0.037827 	 1.6197 C L(0.5 - 6) 	 cbAlphaLo = 1.6197 C 	 1.4168 C L(0.5 - 10) 	 cbAlphaHi = 1.4168 C
120 	 0.0065259 	 0.046310 	 1.6673 	 0.036551 	 1.6197 C L(0.5 - 6) 	 cbAlphaLo = 1.6197 C 	 1.4168 C L(0.5 - 10) 	 cbAlphaHi = 1.4168 C
140 	 0.027389 	 0.043245 	 1.7902 	 0.034051 	 1.6197 C L(0.5 - 6) 	 cbAlphaLo = 1.6197 C 	 1.4168 C L(0.5 - 10) 	 cbAlphaHi = 1.4168 C
160 	 0.00034686 	 0.043050 	 1.9682 	 0.033261 	 1.6197 C L(0.5 - 6) 	 cbAlphaLo = 1.6197 C 	 1.4168 C L(0.5 - 10) 	 cbAlphaHi = 1.4168 C
180 	 0.082440 	 0.042569 	 2.1425 	 0.033436 	 1.6197 C L(0.5 - 6) 	 cbAlphaLo = 1.6197 C 	 1.4168 C L(0.5 - 10) 	 cbAlphaHi = 1.4168 C
200 	 0.046717 	 0.044399 	 2.2782 	 0.034807 	 1.6197 C L(0.5 - 6) 	 cbAlphaLo = 1.6197 C 	 1.4168 C L(0.5 - 10) 	 cbAlphaHi = 1.4168 C
