
[hgg]
mgg =  80.000 L(162 - 198) B(72) 
mX =  180.00 C L(-INF - +INF) 
dmX =  0.041772 +/- 0.12291 L(-15 - 15) 
cbSigma =  2.6896 +/- 0.11943 L(0 - 60) // [GeV]
cbAlphaLo =  1.4095 +/- 0.14565 L(0.5 - 6) 
cbNLo =  8.3509 C L(1 - 10) 
cbAlphaHi =  1.7938 +/- 0.19780 L(0.4 - 10) 
cbNHi =  29.748 C L(1 - 100) 
xi = -0.0200000 C L(-INF - +INF) 
nSignal =  1267.1 +/- 44.758 L(0 - 1e+07) 
nBackground =  0.0000 C L(0 - 1e+07) 
