40 	 0.068585 	 0.19592 	 0.36237 	 0.30847 	 0.72045 	 0.53471 	 0.49858 	 0.51289
50 	 0.11984 	 0.13700 	 1.0882 	 0.12485 	 1.7901 	 0.55615 	 1.5368 	 0.33261
60 	 0.22265 	 0.11490 	 1.4594 	 0.091477 	 1.5867 	 0.34143 	 3.6913 	 6.6683
70 	 0.20597 	 0.11928 	 1.4700 	 0.13083 	 1.3555 	 0.18569 	 1.3906 	 0.33975
80 	 0.066244 	 0.15133 	 1.8813 	 0.14541 	 1.6302 	 0.46411 	 1.7049 	 0.060002
90 	 0.22228 	 0.098188 	 1.5972 	 0.10061 	 1.2029 	 0.12788 	 1.5300 	 0.22561
100 	 0.24282 	 0.10736 	 1.9256 	 0.084165 	 1.2669 	 0.13382 	 6.1223 	 36.562
110 	 -0.0349519 	 0.094771 	 1.9206 	 0.091688 	 1.6702 	 0.18805 	 1.2953 	 0.13362
120 	 0.10681 	 0.10226 	 2.2085 	 0.086811 	 1.6045 	 0.19231 	 1.8188 	 0.20760
140 	 0.22136 L(-15 - 15) 	 dmX = 0.22136 	 2.5558 L(0 - 60) // [GeV] 	 cbSigma = 2.5558 	 2.1510 L(0.5 - 6) 	 cbAlphaLo = 2.1510 	 8.2161 L(0.4 - 10) 	 cbAlphaHi = 8.2161
160 	 0.019887 	 0.10045 	 2.2679 	 0.12576 	 1.3518 	 0.11300 	 1.7280 	 0.31432
180 	 0.041772 	 0.12291 	 2.6896 	 0.11943 	 1.4095 	 0.14565 	 1.7938 	 0.19780
200 	 0.16737 	 0.13350 	 2.8437 	 0.17832 	 1.4988 	 0.16377 	 1.6190 	 0.31369
